2019/11/16 09:39:20 [error] [exception.CDbException] exception 'CDbException' with message 'CDbConnection failed to open the DB connection: SQLSTATE[HY000] [1045] Access denied for user 'root'@'localhost' (using password: YES)' in C:\xampp\htdocs\partner-mis\framework\db\CDbConnection.php:381
Stack trace:
#0 C:\xampp\htdocs\partner-mis\framework\db\CDbConnection.php(330): CDbConnection->open()
#1 C:\xampp\htdocs\partner-mis\framework\db\CDbConnection.php(308): CDbConnection->setActive(true)
#2 C:\xampp\htdocs\partner-mis\framework\base\CModule.php(387): CDbConnection->init()
#3 C:\xampp\htdocs\partner-mis\framework\base\CApplication.php(438): CModule->getComponent('db')
#4 C:\xampp\htdocs\partner-mis\framework\db\ar\CActiveRecord.php(623): CApplication->getDb()
#5 C:\xampp\htdocs\partner-mis\framework\db\ar\CActiveRecord.php(2309): CActiveRecord->getDbConnection()
#6 C:\xampp\htdocs\partner-mis\framework\db\ar\CActiveRecord.php(387): CActiveRecordMetaData->__construct(Object(Users))
#7 C:\xampp\htdocs\partner-mis\protected\models\Users.php(31): CActiveRecord::model('Users')
#8 C:\xampp\htdocs\partner-mis\protected\controllers\IlcmanagerController.php(20): Users::model()
#9 C:\xampp\htdocs\partner-mis\framework\web\CController.php(1144): IlcmanagerController->accessRules()
#10 C:\xampp\htdocs\partner-mis\framework\web\filters\CInlineFilter.php(58): CController->filterAccessControl(Object(CFilterChain))
#11 C:\xampp\htdocs\partner-mis\framework\web\filters\CFilterChain.php(130): CInlineFilter->filter(Object(CFilterChain))
#12 C:\xampp\htdocs\partner-mis\framework\web\CController.php(291): CFilterChain->run()
#13 C:\xampp\htdocs\partner-mis\framework\web\CController.php(265): CController->runActionWithFilters(Object(CInlineAction), Array)
#14 C:\xampp\htdocs\partner-mis\framework\web\CWebApplication.php(282): CController->run('setnoty')
#15 C:\xampp\htdocs\partner-mis\framework\web\CWebApplication.php(141): CWebApplication->runController('ilcmanager/setn...')
#16 C:\xampp\htdocs\partner-mis\framework\base\CApplication.php(169): CWebApplication->processRequest()
#17 C:\xampp\htdocs\partner-mis\index.php(13): CApplication->run()
#18 {main}
REQUEST_URI=/partner-mis/index.php/ilcmanager/setnoty?deer=deer&_=1573893560365
HTTP_REFERER=http://localhost/partner-mis/index.php/ilcmanager/interview/
---
